Book Id,Title,Author,Author l-f,Additional Authors,ISBN,ISBN13,My Rating,Average Rating,Publisher,Binding,Number of Pages,Year Published,Original Publication Year,Date Read,Date Added,Bookshelves,Bookshelves with positions,Exclusive Shelf,My Review,Spoiler,Private Notes,Read Count,Recommended For,Recommended By,Owned Copies,Original Purchase Date,Original Purchase Location,Condition,Condition Description,BCID
16248062,"Outlaw: Waylon Jennings, Willie Nelson, Kris Kristofferson and the Renegades of Nashville",Michael Streissguth,"Streissguth, Michael",,"=""0062038184""","=""9780062038180""",0,3.62,It Books,Hardcover,304,2013,2013,,2020/03/28,to-read,to-read (#30),to-read,,,,0,,,0,,,,,
17736533,"Red Mars (Mars Trilogy, #1)",Kim Stanley Robinson,"Robinson, Kim Stanley",,"=""""","=""""",0,3.85,Harper Voyager,Kindle Edition,584,2013,1992,,2020/03/25,currently-reading,currently-reading (#38),currently-reading,,,,1,,,0,,,,,
23306186,Station Eleven,Emily St. John Mandel,"Mandel, Emily St. John",,"=""""","=""""",5,4.04,Picador,Kindle Edition,352,2014,2014,2020/03/25,2020/03/21,,,read,,,,1,,,0,,,,,
310459,"Roll of Thunder, Hear My Cry (Logans, #4)",Mildred D. Taylor,"Taylor, Mildred D.",,"=""014034893X""","=""9780140348934""",0,3.83,Puffin Books,Paperback,288,1991,1975,,2020/03/22,to-read,to-read (#29),to-read,,,,0,,,0,,,,,
303922,The Mountain Lion,Jean Stafford,"Stafford, Jean",,"=""0292751362""","=""9780292751361""",0,3.99,University of Texas Press,Paperback,231,1992,1947,,2020/01/31,currently-reading,currently-reading (#37),currently-reading,,,,1,,,0,,,,,
12543,Bird by Bird: Some Instructions on Writing and Life,Anne Lamott,"Lamott, Anne",,"=""0385480016""","=""9780385480017""",5,4.24,Anchor,Paperback,237,1995,1994,2020/02/29,2020/02/26,,,read,,,,1,,,0,,,,,
6334,Never Let Me Go,Kazuo Ishiguro,"Ishiguro, Kazuo",,"=""1400078776""","=""9781400078776""",5,3.82,Vintage Books ,Paperback,288,2010,2005,2020/02/26,2020/02/22,,,read,,,,1,,,0,,,,,
165919,In Milton Lumky Territory,Philip K. Dick,"Dick, Philip K.",,"=""0575074655""","=""9780575074651""",5,3.40,Gollancz,Paperback,213,2005,1985,2020/02/22,2020/02/15,,,read,,,,1,,,0,,,,,
37506348,Winners Take All: The Elite Charade of Changing the World,Anand Giridharadas,"Giridharadas, Anand",,"=""0451493249""","=""9780451493248""",5,4.19,Knopf Publishing Group,Hardcover,288,2018,2018,2020/02/08,2020/02/04,,,read,,,,1,,,0,,,,,
26510246,How to Do Linguistics with R: Data Exploration and Statistical Analysis,Natalia Levshina,"Levshina, Natalia",,"=""9027212244""","=""9789027212245""",0,4.40,John Benjamins Publishing Company,Hardcover,443,2015,2015,,2020/01/08,currently-reading,currently-reading (#36),currently-reading,,,,1,,,0,,,,,
114511,A Sport and a Pastime,James Salter,"Salter, James",Reynolds Price,"=""0374530505""","=""9780374530501""",5,3.70,"Farrar, Straus and Giroux",Paperback,185,2006,1967,2020/01/31,2020/01/26,,,read,,,,1,,,0,,,,,
27507920,The Art of Fiction,James Salter,"Salter, James",John D. Casey,"=""0813939054""","=""9780813939056""",5,3.89,University of Virginia Press,Hardcover,120,2016,,2020/01/28,2020/01/26,,,read,,,,1,,,0,,,,,
45317036,Artificial Unintelligence,Meredith Broussard,"Broussard, Meredith",,"=""0262537680""","=""9780262537681""",5,3.86,MIT Press,Hardcover,248,,,2020/01/26,2020/01/19,,,read,,,,1,,,0,,,,,
18378309,March: Book One,John             Lewis,"Lewis, John","Andrew Aydin, Nate Powell","=""0606324364""","=""9780606324366""",5,4.33,Turtleback Books,Hardcover,128,2013,2013,,2019/07/14,,,read,,,,1,,,0,,,,,
33986067,Deep Learning with Python,Francois Chollet,"Chollet, Francois",,"=""1617294438""","=""9781617294433""",0,4.65,Manning,Paperback,350,2017,,,2020/01/01,currently-reading,currently-reading (#35),currently-reading,,,,1,,,0,,,,,
43446125,Superior: The Return of Race Science,Angela Saini,"Saini, Angela",,"=""000829383X""","=""9780008293833""",5,4.22,Fourth Estate,Paperback,342,2019,2019,2019/12/30,2019/12/28,,,read,,,,1,,,0,,,,,
49554220,Race After Technology: Abolitionist Tools for the New Jim Code,Ruha Benjamin,"Benjamin, Ruha",,"=""""","=""""",0,4.45,Polity,Kindle Edition,172,2019,2019,,2019/11/13,to-read,to-read (#26),to-read,,,,0,,,0,,,,,
617804,Mariana,Monica Dickens,"Dickens, Monica",Harriet Lane,"=""0953478017""","=""9780953478019""",0,3.87,Persephone Books Ltd,Paperback,377,1999,1940,,2019/12/01,currently-reading,currently-reading (#34),currently-reading,,,,1,,,0,,,,,
12533,The Maytrees,Annie Dillard,"Dillard, Annie",,"=""0061239534""","=""9780061239533""",5,3.57,Harper,Hardcover,216,2007,2007,2019/11/30,2019/11/21,,,read,,,,1,,,0,,,,,
11337,The Bluest Eye,Toni Morrison,"Morrison, Toni",,"=""0452287065""","=""9780452287068""",5,4.03,Plume,Paperback,216,2005,1970,2019/11/17,2019/11/11,,,read,,,,1,,,0,,,,,
34762552,Algorithms of Oppression: How Search Engines Reinforce Racism,Safiya Umoja Noble,"Noble, Safiya Umoja",,"=""1479837245""","=""9781479837243""",0,3.94,New York University Press,Paperback,256,2018,2018,,2019/11/13,to-read,to-read (#28),to-read,,,,0,,,0,,,,,
34964830,"Automating Inequality: How High-Tech Tools Profile, Police, and Punish the Poor",Virginia Eubanks,"Eubanks, Virginia",,"=""1250074312""","=""9781250074317""",0,4.03,St. Martin's Press,Hardcover,272,2018,2018,,2019/11/13,to-read,to-read (#27),to-read,,,,0,,,0,,,,,
29906980,Lincoln in the Bardo,George Saunders,"Saunders, George",,"=""0812995341""","=""9780812995343""",5,3.76,Random House,Hardcover,343,2017,2017,2019/11/10,2019/10/20,,,read,,,,1,,,0,,,,,
26210520,Fen,Daisy Johnson,"Johnson, Daisy",,"=""1910702331""","=""9781910702338""",5,3.63,Jonathan Cape,Hardcover,208,2016,2016,2019/10/30,2019/10/30,,,read,,,,1,,,0,,,,,
43722897,The Art of Statistics: How to Learn from Data,David Spiegelhalter,"Spiegelhalter, David",,"=""1541618513""","=""9781541618510""",5,4.24,Basic Books,Hardcover,448,2019,2019,,2019/10/19,,,read,,,,1,,,0,,,,,
42270835,The Nickel Boys,Colson Whitehead,"Whitehead, Colson",,"=""""","=""""",0,4.25,Doubleday,Kindle Edition,224,2019,2019,,2019/09/16,to-read,to-read (#25),to-read,,,,0,,,0,,,,,
770096,Who Said the Race is Over?,Anno Birkin,"Birkin, Anno",Bruce Robinson,"=""0954540018""","=""9780954540012""",0,4.52,Laurentic Wave Machine,Paperback,80,2003,2003,,2019/09/16,to-read,to-read (#24),to-read,,,,0,,,0,,,,,
46456,The Women's Room,Marilyn French,"French, Marilyn",,"=""1860492827""","=""9781860492822""",0,3.95,Little Brown and Company,Paperback,526,1997,1977,,2019/09/16,to-read,to-read (#23),to-read,,,,0,,,0,,,,,
21717,"Triptych (Will Trent, #1)",Karin Slaughter,"Slaughter, Karin",,"=""0385339461""","=""9780385339469""",0,4.13,Delacorte Press,Hardcover,393,2006,2006,,2019/09/16,currently-reading,currently-reading (#33),currently-reading,,,,1,,,0,,,,,
1943736,Knulp (Picador Books),Hermann Hesse,"Hesse, Hermann",,"=""0330240285""","=""9780330240284""",5,3.85,Picador,Hardcover,125,1974,1915,2019/09/15,2019/09/15,,,read,,,,1,,,0,,,,,
18528190,Men Explain Things to Me,Rebecca Solnit,"Solnit, Rebecca",,"=""1608463869""","=""9781608463862""",5,3.89,Haymarket Books,Paperback,130,2014,2014,2019/09/12,2019/09/09,,,read,,,,1,,,0,,,,,
35957157,Thinking in Bets: Making Smarter Decisions When You Don't Have All the Facts,Annie Duke,"Duke, Annie",,"=""0735216355""","=""9780735216358""",5,3.84,Portfolio Penguin,Hardcover,288,2018,2018,2019/08/31,2019/08/12,,,read,,,,1,,,0,,,,,
29569551,March: Book Three,John             Lewis,"Lewis, John","Andrew Aydin, Nate Powell","=""060638605X""","=""9780606386050""",5,4.64,Turtleback Books,Library Binding,256,2016,2016,2019/08/30,2019/08/18,,,read,,,,1,,,0,,,,,
450093,The Stones of Summer,Dow Mossman,"Mossman, Dow",,"=""0760748845""","=""9780760748848""",0,3.15,Sterling,Hardcover,608,2003,1972,,2019/08/27,currently-reading,currently-reading (#32),currently-reading,,,,1,,,0,,,,,
41864534,Why Karen Carpenter Matters,Karen Tongson,"Tongson, Karen",,"=""1477318844""","=""9781477318843""",5,3.93,University of Texas Press,Paperback,138,2019,2019,2019/08/26,2019/08/19,,,read,,,,1,,,0,,,,,
25932604,Collected Stories,James Salter,"Salter, James",,"=""1447239393""","=""9781447239390""",5,3.98,Picador,Paperback,256,2014,2013,2019/08/18,2019/08/04,,,read,,,,1,,,0,,,,,
24733341,Suite for Barbara Loden,Nathalie Léger,"Léger, Nathalie","Natasha Lehrer, Cécile Menon","=""0993009301""","=""9780993009303""",5,4.25,Les Fugitives,Paperback,121,2015,2012,2019/08/03,2019/08/03,,,read,,,,1,,,0,,,,,
41397373,The Word Pretty,Elisa Gabbert,"Gabbert, Elisa",,"=""1939568269""","=""9781939568267""",5,4.10,Black Ocean,Paperback,184,2018,2018,2019/08/03,2019/07/31,,,read,,,,1,,,0,,,,,
61008,Endless Love,Scott Spencer,"Spencer, Scott",,"=""0880016280""","=""9780880016285""",5,3.54,Ecco Press,Hardcover,432,2003,1979,2019/07/31,2019/07/21,,,read,,,,1,,,0,,,,,
40046059,Trust Exercise,Susan Choi,"Choi, Susan",,"=""1250309883""","=""9781250309884""",5,3.16,Henry Holt & Company,Hardcover,257,2019,2019,2019/07/21,2019/07/13,,,read,,,,1,,,0,,,,,
24578092,The Walker's Guide to Outdoor Clues and Signs,Tristan Gooley,"Gooley, Tristan",,"=""1444780085""","=""9781444780086""",4,3.73,Sceptre,Capa dura,448,2014,2015,2017/01/14,2017/01/01,,,read,,,,1,,,0,,,,,
40216324,The River,Peter Heller,"Heller, Peter",,"=""0525521879""","=""9780525521877""",5,3.85,Knopf Publishing Group,Hardcover,253,2019,2019,2019/07/13,2019/07/09,,,read,,,,1,,,0,,,,,
829289,White Oleander,Janet Fitch,"Fitch, Janet",,"=""1860498043""","=""9781860498046""",5,3.97,Little Brown and Company,Paperback,390,2000,1999,2019/07/07,2019/06/30,,,read,,,,1,,,0,,,,,
35285193,Conversations with Friends,Sally Rooney,"Rooney, Sally",,"=""0571333133""","=""9780571333134""",5,3.81,Faber &  Faber,Paperback,321,2018,2017,2019/06/30,2019/06/28,,,read,,,,1,,,0,,,,,
6890412,Homer & Langley,E.L. Doctorow,"Doctorow, E.L.",,"=""0739328670""","=""9780739328675""",5,3.62,Random House Large Print,Paperback,256,2009,2009,2019/06/28,2019/06/16,,,read,,,,1,,,0,,,,,
7114349,To Kill a Mockingbird,Harper Lee,"Lee, Harper",,"=""0061743534""","=""9780061743535""",5,4.27,Harper Perennial,Paperback,336,2010,1960,2019/06/15,2019/06/10,,,read,,,,1,,,0,,,,,
183211,Harriet Tubman: Conductor on the Underground Railroad,Ann Petry,"Petry, Ann",,"=""0064461815""","=""9780064461818""",5,4.02,Amistad,Paperback,256,2007,1955,2019/06/01,2019/05/30,,,read,,,,1,,,0,,,,,
24612148,Gold Fame Citrus,Claire Vaye Watkins,"Watkins, Claire Vaye",,"=""1594634238""","=""9781594634239""",5,3.29,Riverhead Books,Hardcover,339,2015,2015,2019/05/30,2019/05/19,,,read,,,,1,,,0,,,,,
35661773,The Overstory,Richard Powers,"Powers, Richard",,"=""1785151630""","=""9781785151637""",5,4.17,William Heinemann,Hardcover,502,2018,2018,2019/05/12,2019/05/06,,,read,,,,1,,,0,,,,,
37539457,Normal People,Sally Rooney,"Rooney, Sally",,"=""0571334644""","=""9780571334643""",5,3.86,Faber & Faber,Hardcover,266,2018,2018,2019/05/18,2019/05/14,,,read,,,,1,,,0,,,,,
18803075,Plain Song,Jim Harrison,"Harrison, Jim",,"=""""","=""""",5,3.90,W. W. Norton,Hardcover,69,1965,1965,2019/04/23,2019/04/23,,,read,,,,1,,,0,,,,,
717041,Locations,Jim Harrison,"Harrison, Jim",,"=""039304257X""","=""9780393042573""",0,4.33,W.W. Norton & Company,Hardcover,62,1968,1968,2019/04/24,2019/05/06,,,read,,,,1,,,0,,,,,
31344309,Hope In The Dark,Rebecca Solnit,"Solnit, Rebecca",,"=""1782119078""","=""9781782119074""",5,4.05,Canongate,Paperback,152,2016,2004,2019/05/06,2017/09/17,,,read,,,,1,,,0,,,,,
25324121,A Line Made by Walking,Sara Baume,"Baume, Sara",,"=""0099592754""","=""9780099592754""",5,3.77,Cornerstone,Paperback,320,2018,2017,2019/05/05,2019/05/04,,,read,,,,1,,,0,,,,,
42832585,Graph Algorithms: Practical Examples in Apache Spark & Neo4j,Amy Hodler,"Hodler, Amy",Mark Needham,"=""1492047686""","=""9781492047681""",0,4.39,O'Reilly Media,ebook,257,2019,,,2019/04/30,currently-reading,currently-reading (#31),currently-reading,,,,1,,,0,,,,,
24600912,We are All Completely Beside Ourselves,Karen Joy Fowler,"Fowler, Karen Joy",Katharine Mangold,"=""1471270815""","=""9781471270819""",5,3.72,W F Howes Ltd,Audio CD,8,2014,2013,2019/04/22,2019/04/21,,,read,,,,1,,,0,,,,,
40191449,The Lost Man,Jane Harper,"Harper, Jane",,"=""1408708213""","=""9781408708217""",5,4.19,"Little, Brown",Hardcover,362,2019,2018,2019/04/21,2019/04/14,,,read,,,,1,,,0,,,,,
178629,Benito Cereno,Herman Melville,"Melville, Herman",Wyn Kelley,"=""031245242X""","=""9780312452421""",0,3.60,Bedford/St. Martin's,Paperback,160,2006,1855,,2019/04/07,currently-reading,currently-reading (#30),currently-reading,,,,1,,,0,,,,,
39999,The Boy in the Striped Pajamas,John Boyne,"Boyne, John",,"=""""","=""""",5,4.14,David Fickling Books,Hardcover,240,2006,2006,2019/04/07,2019/04/06,,,read,,,,1,,,0,,,,,
36518232,The Book of Why: The New Science of Cause and Effect,Judea Pearl,"Pearl, Judea",,"=""0241242630""","=""9780241242636""",0,3.95,Allen Lane,Hardcover,432,2018,2018,2019/04/02,2019/03/14,,,read,,,,1,,,0,,,,,
36645951,A Ladder to the Sky,John Boyne,"Boyne, John",,"=""085752349X""","=""9780857523495""",5,4.22,Doubleday,Hardcover,368,2018,2018,2019/03/10,2019/03/06,,,read,,,,1,,,0,,,,,
34853656,The Dry (Aaron Falk #1),Jane Harper,"Harper, Jane",,"=""0349142114""","=""9780349142111""",5,4.04,"Little, Brown Book Group",Paperback,401,2017,2016,2019/03/06,2019/03/03,,,read,,,,1,,,0,,,,,
36362379,"Sing, Unburied, Sing",Jesmyn Ward,"Ward, Jesmyn",,"=""""","=""9781408891032""",5,4.02,Bloomsbury Circus,Paperback,292,2017,2017,2019/02/28,2019/02/23,,,read,,,,1,,,0,,,,,
10117779,Carol,Patricia Highsmith,"Highsmith, Patricia",Claire  Morgan,"=""1408808978""","=""9781408808979""",5,3.97,Bloomsbury Publishing PLC,Paperback,320,2010,1952,2019/02/23,2019/02/16,,,read,,,,1,,,0,,,,,
17346997,Doing Data Science,Rachel Schutt,"Schutt, Rachel",Cathy O'Neil,"=""1449358659""","=""9781449358655""",0,3.71,O'Reilly Media,Paperback,375,2013,2013,,2017/10/24,currently-reading,currently-reading (#14),currently-reading,,,,1,,,0,,,,,
38085814,The Salt Path,Raynor Winn,"Winn, Raynor",,"=""0241349648""","=""9780241349649""",5,4.18,Michael Joseph,Hardcover,288,2018,2018,2019/02/16,2019/02/14,,,read,,,,1,,,0,,,,,
120158,Memento Mori,Muriel Spark,"Spark, Muriel",,"=""0811214389""","=""9780811214384""",5,3.65,New Directions,Paperback,228,2000,1958,2019/02/14,2019/02/02,,,read,,,,1,,,0,,,,,
30462852,Computer Age Statistical Inference,Bradley Efron,"Efron, Bradley",Trevor Hastie,"=""1107149894""","=""9781107149892""",0,4.42,Cambridge University Press,Hardcover,495,2016,,,2019/02/04,currently-reading,currently-reading (#29),currently-reading,,,,1,,,0,,,,,
20949594,McGlue,Ottessa Moshfegh,"Moshfegh, Ottessa",,"=""1934200859""","=""9781934200858""",5,3.61,Fence Books,Paperback,118,2014,2014,2019/02/02,2019/01/29,,,read,,,,1,,,0,,,,,
2459785,"In the Woods (Dublin Murder Squad, #1)",Tana French,"French, Tana",,"=""""","=""""",5,3.77,Penguin Books,Paperback,431,2008,2007,2019/01/29,2019/01/20,,,read,,,,1,,,0,,,,,
18803640,H is for Hawk,Helen Macdonald,"Macdonald, Helen",,"=""0224097008""","=""9780224097000""",3,3.73,Jonathan Cape,Hardcover,300,2014,2014,2019/01/20,2019/01/12,,,read,,,,1,,,0,,,,,
23453099,Eileen,Ottessa Moshfegh,"Moshfegh, Ottessa",,"=""1594206627""","=""9781594206627""",0,3.51,Penguin Press,Hardcover,272,2015,2015,2019/01/10,2019/01/06,,,read,,,,1,,,0,,,,,
570438,A Different Drummer,William Melvin Kelley,"Kelley, William Melvin",,"=""0385413904""","=""9780385413909""",5,4.25,Anchor,Paperback,205,1990,1964,2019/01/06,2019/01/04,,,read,,,,1,,,0,,,,,
39088984,"Long Road to Mercy (Atlee Pine, #1)",David Baldacci,"Baldacci, David",,"=""1538761572""","=""9781538761571""",5,3.90,Grand Central Publishing,Hardcover,404,2018,2018,2019/01/04,2018/12/28,,,read,,,,1,,,0,,,,,
35747076,Accelerate: Building and Scaling High-Performing Technology Organizations,Nicole Forsgren,"Forsgren, Nicole","Jez Humble, Gene Kim","=""1942788339""","=""9781942788331""",0,4.10,It Revolution Press,Paperback,257,2018,,,2018/12/26,currently-reading,currently-reading (#28),currently-reading,,,,1,,,0,,,,,
24637380,Scottsboro,Ellen Feldman,"Feldman, Ellen",,"=""""","=""9781447275343""",5,3.91,Picador,Paperback,367,2015,2008,2018/12/24,2018/12/21,,,read,,,,1,,,0,,,,,
36047860,Milkman,Anna Burns,"Burns, Anna",,"=""0571338763""","=""9780571338764""",0,3.58,Faber & Faber,ebook,352,2018,2018,2018/12/21,2018/11/29,,,read,,,,1,,,0,,,,,
23492835,"Scents and Sensibility (A Chet and Bernie Mystery, #8)",Spencer Quinn,"Quinn, Spencer",,"=""1476703426""","=""9781476703428""",5,4.14,Atria Books,Hardcover,320,2015,2015,2018/11/29,2018/11/24,,,read,,,,1,,,0,,,,,
2241187,Statistical Evidence: A Likelihood Paradigm,Richard Royall,"Royall, Richard",,"=""0412044110""","=""9780412044113""",0,4.23,CRC Press,Hardcover,191,1997,1997,,2018/11/27,to-read,to-read (#22),to-read,,,,0,,,0,,,,,
26784685,"Regression Modeling Strategies: With Applications to Linear Models, Logistic and Ordinal Regression, and Survival Analysis",Frank E. Harrell Jr.,"Jr., Frank E. Harrell",,"=""3319194240""","=""9783319194240""",0,4.12,Springer,Hardcover,582,2015,2015,,2018/11/25,currently-reading,currently-reading (#27),currently-reading,,,,1,,,0,,,,,
24909816,Dawn of the New Everything: A Journey Through Virtual Reality,Jaron Lanier,"Lanier, Jaron",,"=""1847923526""","=""9781847923523""",0,3.89,The Bodley Head,Hardcover,368,2017,2017,,2018/11/04,currently-reading,currently-reading (#26),currently-reading,,,,1,,,0,,,,,
31508474,"Programming in Lua, Fourth Edition",Roberto Ierusalimschy,"Ierusalimschy, Roberto",,"=""8590379868""","=""9788590379867""",0,3.97,Lua.Org,Paperback,388,2016,2001,,2017/03/23,currently-reading,currently-reading (#7),currently-reading,,,,1,,,0,,,,,
135483,My Life with the Chimpanzees,Jane Goodall,"Goodall, Jane",,"=""0671562711""","=""9780671562717""",5,4.13,Aladdin,Paperback,156,1996,1988,2018/10/30,2018/10/30,,,read,,,,1,,,0,,,,,
18775381,"Paw and Order (A Chet and Bernie Mystery, #7)",Spencer Quinn,"Quinn, Spencer",,"=""1476703396""","=""9781476703398""",5,3.91,Atria Books,Hardcover,320,2014,2014,2018/10/28,2018/10/27,,,read,,,,1,,,0,,,,,
435109,Warlock,Jim Harrison,"Harrison, Jim",,"=""0385291345""","=""9780385291347""",5,3.71,Delta,Paperback,272,1982,1982,2018/10/27,2018/10/27,,,read,,,,1,,,0,,,,,
18765,"I, Claudius (Claudius, #1)",Robert Graves,"Graves, Robert",,"=""067972477X""","=""9780679724773""",4,4.27,Vintage,Paperback,468,1989,1934,2018/10/14,2018/10/05,,,read,,,,1,,,0,,,,,
126609,Sister Carrie,Theodore Dreiser,"Dreiser, Theodore",,"=""0393960420""","=""9780393960426""",5,3.75,W. W. Norton & Company,Paperback,580,1991,1900,2018/09/30,2018/09/24,,,read,,,,1,,,0,,,,,
32920226,"Sing, Unburied, Sing",Jesmyn Ward,"Ward, Jesmyn",,"=""1501126067""","=""9781501126062""",0,4.02,Scribner,Hardcover,285,2017,2017,,2018/09/30,to-read,to-read (#21),to-read,,,,0,,,0,,,,,
37398,Jazz,Toni Morrison,"Morrison, Toni",,"=""0452269652""","=""9780452269651""",5,3.81,Plume,Paperback,229,1993,1992,2018/09/24,2018/09/24,,,read,,,,1,,,0,,,,,
41193,A Thousand Acres,Jane Smiley,"Smiley, Jane",,"=""1400033837""","=""9781400033836""",5,3.81,Anchor,Paperback,371,2003,1991,2018/09/16,2018/09/06,,,read,,,,1,,,0,,,,,
9003187,Doing Bayesian Data Analysis: A Tutorial Introduction with R,John K. Kruschke,"Kruschke, John K.",,"=""0123814855""","=""9780123814852""",0,4.39,Academic Press,Hardcover,653,2010,2010,,2017/09/01,currently-reading,currently-reading (#10),currently-reading,,,,1,,,0,,,,,
11334,Song of Solomon,Toni Morrison,"Morrison, Toni",,"=""140003342X""","=""9781400033423""",5,4.06,Vintage,Paperback,337,2004,1977,2018/09/05,2018/09/03,,,read,,,,1,,,0,,,,,
3383583,"First Family (Amtrak Wars, #2)",Patrick Tilley,"Tilley, Patrick",,"=""0356206041""","=""9780356206042""",5,3.88,,,,,1985,2018/09/03,2018/08/26,,,read,,,,1,,,0,,,,,
25242107,The End of the Story,Lydia Davis,"Davis, Lydia",,"=""024120545X""","=""9780241205457""",5,3.68,Penguin,Paperback,236,2015,1994,2018/08/26,2018/08/16,,,read,,,,1,,,0,,,,,
215575,"I Know Why the Caged Bird Sings (Maya Angelou's Autobiography, #1)",Maya Angelou,"Angelou, Maya",,"=""086068511X""","=""9780860685111""",5,4.23,Virago Press,Paperback,309,2007,1969,2018/08/16,2018/08/10,,,read,,,,1,,,0,,,,,
9475197,A Croft in the Hills,Katharine Stewart,"Stewart, Katharine",,"=""1841587915""","=""9781841587912""",0,3.99,Birlinn Ltd,Paperback,192,2009,1996,,2018/07/22,currently-reading,currently-reading (#25),currently-reading,,,,1,,,0,,,,,
1455457,The Europeans,Henry James,"James, Henry",,"=""0140020705""","=""9780140020700""",0,3.61,Penguin Books,Paperback,173,1975,1878,,2018/07/21,to-read,to-read (#20),to-read,,,,0,,,0,,,,,
15979697,Two on a Tower,Thomas Hardy,"Hardy, Thomas",,"=""0141199431""","=""9780141199436""",0,3.71,Penguin Books,Paperback,328,2012,1882,,2018/07/21,to-read,to-read (#19),to-read,,,,0,,,0,,,,,
873921,Wise Children,Angela Carter,"Carter, Angela",Ali Smith,"=""0099981106""","=""9780099981107""",0,3.94,London: Vintage,Paperback,234,2007,1991,,2018/07/21,to-read,to-read (#18),to-read,,,,0,,,0,,,,,
1103243,Glory,Vladimir Nabokov,"Nabokov, Vladimir",,"=""0140113878""","=""9780140113877""",0,3.70,Penguin Books Ltd,Paperback,192,1990,1931,,2018/07/21,to-read,to-read (#17),to-read,,,,0,,,0,,,,,
29777243,Sounder,William H. Armstrong,"Armstrong, William H.",,"=""0141359773""","=""9780141359779""",5,3.97,Puffin,Paperback,,2015,1969,2018/07/21,2018/07/20,,,read,,,,1,,,0,,,,,
33012969,The Right Side,Spencer Quinn,"Quinn, Spencer",,"=""""","=""""",5,3.90,Atria Books,Kindle Edition,337,2017,2017,2018/07/20,2018/07/14,,,read,,,,1,,,0,,,,,
151848,Probability Theory,E.T. Jaynes,"Jaynes, E.T.",G. Larry Bretthorst,"=""0521592712""","=""9780521592710""",0,4.39,Cambridge University Press,Hardcover,753,2003,1999,,2017/12/27,currently-reading,currently-reading (#20),currently-reading,,,,1,,,0,,,,,
259836,"Dragons of Autumn Twilight  (Dragonlance: Chronicles, #1)",Margaret Weis,"Weis, Margaret",Tracy Hickman,"=""0786915749""","=""9780786915743""",0,3.99,Wizards of the Coast,Paperback,444,2000,1984,,2018/07/14,to-read,to-read (#16),to-read,,,,0,,,0,,,,,
11352,Sula,Toni Morrison,"Morrison, Toni",,"=""0099760010""","=""9780099760016""",5,3.93,Vintage Books,Paperback,189,2005,1973,2018/07/14,2018/07/14,,,read,,,,1,,,0,,,,,
23924233,Beloved Exile,Alexander Cordell,"Cordell, Alexander",,"=""""","=""""",0,4.10,Hodder & Stoughton,Kindle Edition,608,2014,1993,,2018/06/06,to-read,to-read (#15),to-read,,,,0,,,0,,,,,
23388810,The Complete Novels,D.H. Lawrence,"Lawrence, D.H.",,"=""""","=""""",0,4.06,Complete D H Lawrence Novels,Kindle Edition,,2014,1987,,2018/06/16,to-read,to-read (#14),to-read,,,,0,,,0,,,,,
4338368,"Cloud Warrior (Amtrak Wars, #1)",Patrick Tilley,"Tilley, Patrick",,"=""0722185162""","=""9780722185162""",5,3.89,Sphere Books,,314,1983,1983,2018/07/08,2018/07/05,,,read,,,,1,,,0,,,,,
1703196,"My life by water: Collected poems, 1936-1968",Lorine Niedecker,"Niedecker, Lorine",,"=""085246052X""","=""9780852460528""",0,4.42,,Hardcover,126,1970,,,2018/06/30,,,read,,,,1,,,0,,,,,
24874228,Tarka the Otter,Henry Williamson,"Williamson, Henry",,"=""014135495X""","=""9780141354958""",5,3.79,Puffin,Paperback,288,2014,1927,2018/06/30,2018/06/18,,,read,,,,1,,,0,,,,,
33107673,The Waste Land (Wisehouse Classics - Original Authoritative Edition),T.S. Eliot,"Eliot, T.S.",Sam Vaseghi,"=""""","=""""",5,4.11,Wisehouse Classics,Kindle Edition,41,2016,1922,2018/06/18,2018/06/18,,,read,,,,1,,,0,,,,,
36309439,"The World Broke in Two: Virginia Woolf, T. S. Eliot, D. H. Lawrence, E. M. Forster and the Year that Changed Literature",Bill Goldstein,"Goldstein, Bill",,"=""1408894580""","=""9781408894583""",5,3.79,Bloomsbury Circus,Hardcover,368,2017,2017,2018/06/17,2018/05/28,,,read,,,,1,,,0,,,,,
23009896,Invisible Man,Ralph Ellison,"Ellison, Ralph",,"=""0241970563""","=""9780241970560""",5,3.86,Penguin,Paperback,581,2014,1952,2018/02/15,2018/01/31,,,read,,,,1,,,0,,,,,
36598205,The Midnight Line (Jack Reacher #22),Lee Child,"Child, Lee",,"=""0857503618""","=""9780857503619""",5,4.08,Bantam,Paperback,450,2018,2017,2018/05/31,2018/05/29,,,read,,,,1,,,0,,,,,
990590,The Merry Month of May,James  Jones,"Jones, James",,"=""1888451459""","=""9781888451450""",5,3.44,Akashic Books,Paperback,298,2004,1971,2018/05/28,2018/05/18,,,read,,,,1,,,0,,,,,
126608,The Good Soldier,Ford Madox Ford,"Ford, Ford Madox",David Bradshaw,"=""0141441844""","=""9780141441849""",5,3.71,Penguin Books,Paperback,214,2007,1915,2018/05/13,2018/05/07,,,read,,,,1,,,0,,,,,
34379978,Addlands,Tom Bullough,"Bullough, Tom",,"=""1783781661""","=""9781783781669""",1,3.51,Granta Books,Paperback,304,2017,2016,2018/05/07,2018/04/29,,,read,Total shite.,,,1,,,0,,,,,
7122304,Selected Poems,Carl Sandburg,"Sandburg, Carl",Rebecca West,"=""0151806632""","=""9780151806638""",0,4.05,Harcourt,Hardcover,,1926,1926,,2018/05/06,currently-reading,currently-reading (#24),currently-reading,,,,1,,,0,,,,,
778310,Tender Buttons,Gertrude Stein,"Stein, Gertrude",,"=""0486298973""","=""9780486298979""",0,3.74,Dover Publications,Paperback,96,1997,1909,2018/04/26,2018/04/26,,,read,,,,1,,,0,,,,,
4586747,Montana 1948,Larry Watson,"Watson, Larry",,"=""0330349864""","=""9780330349864""",5,3.80,,,,,1993,2018/04/28,2018/04/22,,,read,,,,1,,,0,,,,,
1807199,The Badgers of Summercombe,Ewan Clarkson,"Clarkson, Ewan",,"=""0091299209""","=""9780091299200""",0,3.60,Hutchinson,,159,1977,1977,2018/04/29,2018/04/27,,,read,,,,1,,,0,,,,,
5279894,North Central,Lorine Niedecker,"Niedecker, Lorine",,"=""0852460120""","=""9780852460122""",5,4.32,Fulcrum Press,Hardcover,44,1968,1968,2018/04/22,2018/04/22,,,read,,,,1,,,0,,,,,
4610,Catch-22,Joseph Heller,"Heller, Joseph",,"=""0099477319""","=""9780099477310""",5,3.98,Vintage,Paperback,519,1994,1961,2018/04/22,2018/04/07,,,read,,,,1,,,0,,,,,
10045759,Tortilla Flat,John Steinbeck,"Steinbeck, John",Thomas C. Fensch,"=""""","=""""",0,3.83,Penguin Books,Kindle Edition,226,2000,1935,,2018/03/25,to-read,to-read (#13),to-read,,,,0,,,0,,,,,
11094566,Of Mice and Men,John Steinbeck,"Steinbeck, John",,"=""""","=""""",0,3.87,Penguin Books,Kindle Edition,64,2000,1937,,2018/03/25,to-read,to-read (#12),to-read,,,,0,,,0,,,,,
39217548,Caught,Harlan Coben,"Coben, Harlan",,"=""1409179435""","=""9781409179436""",5,3.98,Orion Publishing Co,Paperback,400,2018,2010,2018/03/31,2018/03/31,,,read,,,,1,,,0,,,,,
17728,The House of Mirth,Edith Wharton,"Wharton, Edith",Nina Bawden,"=""1844082938""","=""9781844082933""",5,3.95,Virago,Paperback,351,2006,1905,2018/03/31,2018/02/26,,,read,,,,1,,,0,,,,,
29777150,Wait Till I'm Dead: Poems Uncollected,Allen Ginsberg,"Ginsberg, Allen","Bill Morgan, Rachel Zucker","=""0141399023""","=""9780141399027""",5,3.83,Penguin Classics,Paperback,242,2016,2016,2018/02/28,2018/02/03,,,read,,,,1,,,0,,,,,
730364,Their Eyes Were Watching God,Zora Neale Hurston,"Hurston, Zora Neale",Zadie Smith,"=""0860685241""","=""9780860685241""",5,3.91,Virago Press (UK),Paperback,286,2005,1937,2018/02/25,2018/02/18,,,read,,,,1,,,0,,,,,
35340933,Inside the Wave: COSTA BOOK OF THE YEAR 2017,Helen Dunmore,"Dunmore, Helen",,"=""""","=""""",5,3.73,Bloodaxe Books,Kindle Edition,64,2017,2017,2018/02/20,2018/01/22,,,read,,,,1,,,0,,,,,
822745,The Postman Always Rings Twice,James M. Cain,"Cain, James M.",,"=""074753778X""","=""9780747537786""",5,3.80,Bloomsbury,Paperback,117,1997,1934,2018/02/18,2018/02/15,,,read,,,,1,,,0,,,,,
15796694,Ulverton,Adam Thorpe,"Thorpe, Adam",Robert Macfarlane,"=""009957344X""","=""9780099573449""",5,3.66,Vintage Classics,Paperback,415,2012,1992,2018/01/30,2017/12/03,,,read,,,,1,,,0,,,,,
35167439,Electric Arches,Eve L. Ewing,"Ewing, Eve L.",,"=""""","=""""",5,4.29,Haymarket Books,Kindle Edition,94,2017,2017,2018/01/30,2018/01/21,,,read,,,,1,,,0,,,,,
34090124,Counting Descent,Clint   Smith,"Smith, Clint",,"=""""","=""""",5,4.58,Write Bloody Publishing,Kindle Edition,84,2017,2016,2018/01/21,2018/01/21,,,read,,,,1,,,0,,,,,
27802653,The Complete Poems of Emily Dickinson,Emily Dickinson,"Dickinson, Emily",,"=""""","=""""",0,4.22,Krill Press,Kindle Edition,240,2015,1890,,2018/01/23,currently-reading,currently-reading (#23),currently-reading,,,,1,,,0,,,,,
20717552,Mathematics and Plausible Reasoning [Two Volumes in One],George Pólya,"Pólya, George",,"=""1614275572""","=""9781614275572""",0,4.71,Martino Fine Books,Paperback,498,2014,2012,,2018/01/22,currently-reading,currently-reading (#22),currently-reading,,,,1,,,0,,,,,
233116,Night Rider,Robert Penn Warren,"Warren, Robert Penn",George Core,"=""1879941147""","=""9781879941144""",5,3.64,J. S. Sanders and Company,Paperback,477,1992,1939,2018/01/21,2017/11/19,,,read,,,,1,,,0,,,,,
25493850,The Power of the Dog,Thomas Savage,"Savage, Thomas",,"=""1784870625""","=""9781784870621""",5,4.18,Vintage,Paperback,304,2016,1967,2018/01/06,2018/01/02,,,read,,,,1,,,0,,,,,
22610350,The Disappearance of Adèle Bedeau (Georges Gorski #1),Graeme Macrae Burnet,"Burnet, Graeme Macrae",,"=""""","=""""",5,3.84,Contraband,Kindle Edition,252,2014,2014,2017/12/31,2017/12/29,,,read,,,,1,,,0,,,,,
30651306,The Dog Who Dared to Dream,Sun-mi Hwang,"Hwang, Sun-mi","Chi-Young Kim, Nomoco","=""0349142106""","=""9780349142104""",5,3.75,Abacus,Paperback,169,2016,2012,2017/12/29,2017/11/10,,,read,,,,1,,,0,,,,,
25214257,Red Notice: How I Became Putin's No. 1 Enemy,Bill Browder,"Browder, Bill",,"=""0552170321""","=""9780552170321""",5,4.41,Corgi,Paperback,480,2016,2014,2017/12/28,2017/12/18,,,read,,,,1,,,0,,,,,
737071,Data Analysis Using Regression and Multilevel/Hierarchical Models,Andrew Gelman,"Gelman, Andrew",Jennifer Hill,"=""052168689X""","=""9780521686891""",0,4.35,Cambridge University Press,Paperback,625,2006,2006,,2017/12/27,currently-reading,currently-reading (#21),currently-reading,,,,1,,,0,,,,,
33270545,"Practical Machine Learning with H2O: Powerful, Scalable Techniques for Deep Learning and AI",Darren Cook,"Cook, Darren",,"=""""","=""""",0,4.54,O'Reilly Media,Kindle Edition,300,2016,,,2017/12/22,currently-reading,currently-reading (#19),currently-reading,,,,1,,,0,,,,,
18711042,Think Bayes,Allen B. Downey,"Downey, Allen B.",,"=""""","=""""",0,3.85,O'Reilly Media,Kindle Edition,210,2013,2012,,2017/12/22,currently-reading,currently-reading (#18),currently-reading,,,,1,,,0,,,,,
36390817,The Accident on the A35,Graeme Macrae Burnet,"Burnet, Graeme Macrae",,"=""1910192872""","=""9781910192870""",5,3.52,Contraband,Hardcover,288,2017,2017,2017/12/17,2017/12/17,,,read,,,,1,,,0,,,,,
77810,The Days of Abandonment,Elena Ferrante,"Ferrante, Elena",Ann Goldstein,"=""1933372001""","=""9781933372006""",5,3.86,Europa Editions,Paperback,188,2005,2002,2017/11/30,2017/09/17,,,read,,,,1,,,0,,,,,
33952848,The Adversary: A True Story of Monstrous Deception,Emmanuel Carrère,"Carrère, Emmanuel",,"=""1784705802""","=""9781784705800""",5,3.94,Vintage,Paperback,208,2017,1999,2017/11/25,2017/11/10,,,read,,,,1,,,0,,,,,
14554574,"Becoming an Academic Writer: 50 Exercises for Paced, Productive, and Powerful Writing",Patricia Goodson,"Goodson, Patricia",,"=""1452203865""","=""9781452203867""",0,4.17,"Sage Publications, Inc",Paperback,225,2012,2012,,2017/11/23,currently-reading,currently-reading (#17),currently-reading,,,,1,,,0,,,,,
55563,The Journalist and the Murderer,Janet Malcolm,"Malcolm, Janet",Ian Jack,"=""1862076375""","=""9781862076372""",5,3.80,Granta Books,Paperback,163,2004,1990,2017/11/19,2017/11/10,,,read,,,,1,,,0,,,,,
26619686,Statistical Rethinking: A Bayesian Course with Examples in R and Stan,Richard McElreath,"McElreath, Richard",,"=""1482253445""","=""9781482253443""",0,4.74,CRC Press,Hardcover,469,2015,2015,,2017/11/13,currently-reading,currently-reading (#16),currently-reading,,,,1,,,0,,,,,
31288031,Birdcage Walk,Helen Dunmore,"Dunmore, Helen",,"=""0091959411""","=""9780091959418""",5,3.69,Hutchinson,Paperback,416,2017,2017,2017/11/12,2017/11/01,,,read,,,,1,,,0,,,,,
27411950,Quartet in Autumn,Barbara Pym,"Pym, Barbara",Alexander McCall Smith,"=""1447289617""","=""9781447289616""",5,3.94,Pan MacMillan,Paperback,186,2015,1977,2017/10/31,2017/09/17,,,read,,,,1,,,0,,,,,
2543099,"The Craft of Research (Chicago Guides to Writing, Editing, and Publishing)",Wayne C. Booth,"Booth, Wayne C.","Gregory G. Colomb, Joseph M. Williams","=""0226065669""","=""9780226065663""",0,3.88,University Of Chicago Press,Paperback,336,2008,1995,,2017/10/24,currently-reading,currently-reading (#15),currently-reading,,,,1,,,0,,,,,
24072897,Deep Learning,Ian Goodfellow,"Goodfellow, Ian","Yoshua Bengio, Aaron Courville","=""""","=""""",0,4.46,The MIT Press,ebook,787,2016,,,2017/10/24,currently-reading,currently-reading (#13),currently-reading,,,,1,,,0,,,,,
17396309,Stay Close,Harlan Coben,"Coben, Harlan",,"=""1409117227""","=""9781409117223""",5,3.88,Orion,Paperback,405,2013,2012,2017/10/22,2017/03/25,,,read,,,,1,,,0,,,,,
31930883,The Underground Railroad,Colson Whitehead,"Whitehead, Colson",,"=""""","=""""",5,4.02,Fleet,Paperback,367,2017,2016,2017/10/21,2017/10/11,,,read,,,,1,,,0,,,,,
33871762,The Power,Naomi Alderman,"Alderman, Naomi",,"=""0670919969""","=""9780670919963""",5,3.83,Penguin,Paperback,341,2017,2016,2017/10/11,2017/10/01,,,read,,,,1,,,0,,,,,
2546158,Bayesian Analysis using BUGS: A Practical Introduction (Chapman & Hall/Crc Texts in Statistical Science Series),Andrew Thomas,"Thomas, Andrew",,"=""1584888490""","=""9781584888499""",0,4.00,Chapman & Hall/CRC,Paperback,,2009,2009,,2017/10/09,currently-reading,currently-reading (#12),currently-reading,,,,1,,,0,,,,,
25242224,"The Story of the Lost Child (The Neapolitan Novels, #4)",Elena Ferrante,"Ferrante, Elena",Ann Goldstein,"=""1609452860""","=""9781609452865""",5,4.39,Europa Editions,Paperback,473,2015,2014,2017/09/30,2017/09/17,,,read,,,,1,,,0,,,,,
12042357,Think Stats,Allen B. Downey,"Downey, Allen B.",,"=""1449307116""","=""9781449307110""",0,3.63,O'Reilly Media,Paperback,138,2011,2011,,2017/09/25,currently-reading,currently-reading (#11),currently-reading,,,,1,,,0,,,,,
23156040,"Those Who Leave and Those Who Stay (The Neapolitan Novels, #3)",Elena Ferrante,"Ferrante, Elena",Ann Goldstein,"=""1609452232""","=""9781609452230""",5,4.30,Europa Editions,Paperback,418,2014,2013,2017/09/17,2017/09/06,,,read,,,,1,,,0,,,,,
22305516,"Mythago Wood (Mythago Wood, #1)",Robert Holdstock,"Holdstock, Robert",Neil Gaiman,"=""""","=""""",5,3.81,Gollancz,Paperback,320,2014,1984,2017/09/05,2017/08/28,,,read,,,,1,,,0,,,,,
12306587,Niki: The Story of a Dog,Tibor Déry,"Déry, Tibor",,"=""0140015175""","=""9780140015171""",5,3.80,Penguin Books,Paperback,,1961,1956,2017/08/28,2017/08/27,,,read,,,,1,,,0,,,,,
6362395,Lewis Percy,Anita Brookner,"Brookner, Anita",,"=""0140138927""","=""9780140138924""",5,3.73,,,,,1989,2017/08/27,2017/08/20,,,read,,,,1,,,0,,,,,
11700593,Lives Other than My Own: A Memoir,Emmanuel Carrère,"Carrère, Emmanuel",Linda Coverdale,"=""1429973285""","=""9781429973281""",5,4.05,Metropolitan Books,ebook,256,2011,2009,2017/08/18,2017/08/15,,,read,,,,1,,,0,,,,,
162002,Wolf Solent,John Cowper Powys,"Powys, John Cowper",,"=""0141183993""","=""9780141183992""",5,4.10,Penguin Classics,Paperback,634,2000,1929,2017/08/14,2017/05/21,,,read,,,,1,,,0,,,,,
35179180,"R for Data Science: Import, Tidy, Transform, Visualize, and Model Data",Hadley Wickham,"Wickham, Hadley",Garrett Grolemund,"=""""","=""9781491910399""",0,4.60,O'Reilly,Paperback,492,,2016,,2017/08/07,currently-reading,currently-reading (#9),currently-reading,,,,1,,,0,,,,,
5084828,Quantitative Corpus Linguistics with R: A Practical Introduction,Stefan Th. Gries,"Gries, Stefan Th.",,"=""0415962706""","=""9780415962704""",0,4.58,Routledge,Paperback,252,2008,2008,,2017/07/30,currently-reading,currently-reading (#8),currently-reading,,,,1,,,0,,,,,
27867517,Beast,Paul Kingsnorth,"Kingsnorth, Paul",,"=""0571322077""","=""9780571322077""",5,3.24,Faber & Faber,Hardcover,168,2016,2016,2017/07/27,2017/07/24,,,read,,,,1,,,0,,,,,
437125,Pride and Prejudice,Jane Austen,"Austen, Jane","James Kinsley, Isobel Armstrong, Frank W. Bradbrook","=""0192833553""","=""9780192833556""",5,4.26,Oxford University Press,Paperback,351,1998,1813,2017/07/24,2017/05/21,,,read,,,,1,,,0,,,,,
76479,A Field Guide to Getting Lost,Rebecca Solnit,"Solnit, Rebecca",,"=""0143037242""","=""9780143037248""",5,3.94,Penguin Books,Paperback,209,2006,2005,2017/07/17,2017/07/09,,,read,,,,1,,,0,,,,,
17465515,"The Story of a New Name (The Neapolitan Novels, #2)",Elena Ferrante,"Ferrante, Elena",Ann Goldstein,"=""1609451341""","=""9781609451349""",5,4.38,Europa Editions,Paperback,471,2013,2012,2017/07/09,2017/07/01,,,read,,,,1,,,0,,,,,
716652,"Absalom, Absalom!",William Faulkner,"Faulkner, William",,"=""0099475111""","=""9780099475118""",5,3.96,Vintage,Paperback,384,2005,1936,2017/07/01,2017/06/22,,,read,,,,1,,,0,,,,,
1836269,A Private View,Anita Brookner,"Brookner, Anita",,"=""0679754431""","=""9780679754435""",5,3.61,Vintage,Paperback,242,1996,1995,2017/06/20,2017/06/18,,,read,,,,1,,,0,,,,,
23493596,Song of the Earth: The Mortymer Trilogy Book Three,Alexander Cordell,"Cordell, Alexander",,"=""1473603749""","=""9781473603745""",5,4.28,Hodder & Stoughton,Paperback,368,2015,1969,2017/06/17,2017/03/25,,,read,,,,1,,,0,,,,,
33546357,It Can't Happen Here,Sinclair Lewis,"Lewis, Sinclair",,"=""""","=""""",5,3.76,Penguin ,Paperback,400,2007,1935,2017/06/11,2017/03/07,,,read,,,,1,,,0,,,,,
927806,Travels in the Scriptorium,Paul Auster,"Auster, Paul",,"=""0571232566""","=""9780571232567""",5,3.23,Faber and Faber,Paperback,144,2007,2005,2017/05/28,2017/05/27,,,read,,,,1,,,0,,,,,
13586707,"My Brilliant Friend (The Neapolitan Novels, #1)",Elena Ferrante,"Ferrante, Elena",Ann Goldstein,"=""""","=""""",5,3.95,Europa Editions,Paperback,331,2012,2011,2017/05/26,2017/05/21,,,read,,,,1,,,0,,,,,
3891793,The Suspicions of Mr. Whicher: or the Murder at Road Hill House,Kate Summerscale,"Summerscale, Kate",,"=""0747596484""","=""9780747596486""",0,3.45,Bloomsbury Publishing,Paperback,373,2009,2008,,2017/05/21,to-read,to-read (#11),to-read,,,,0,,,0,,,,,
32919191,The Tobacconist,Robert Seethaler,"Seethaler, Robert",Charlotte Collins,"=""150980658X""","=""9781509806584""",5,3.91,Picador,Hardcover,240,2016,2012,2017/05/20,2017/04/22,,,read,,,,1,,,0,,,,,
7377476,The Moonstone,Wilkie Collins,"Collins, Wilkie",,"=""0099519003""","=""9780099519003""",5,3.91,Vintage Classics,Paperback,496,2009,1868,,2017/04/22,,,read,,,,1,,,0,,,,,
26853635,A Whole Life,Robert Seethaler,"Seethaler, Robert",Charlotte Collins,"=""1447283902""","=""9781447283904""",5,3.96,Picador,Paperback,160,2015,2014,2017/04/27,2017/04/22,,,read,,,,1,,,0,,,,,
17143,Go Tell It on the Mountain,James Baldwin,"Baldwin, James",,"=""0141185910""","=""9780141185910""",5,4.02,Penguin,Paperback,256,2001,1952,,2017/03/25,,,read,,,,1,,,0,,,,,
55022,"The Neon Rain (Dave Robicheaux, #1)",James Lee Burke,"Burke, James Lee",,"=""0753820331""","=""9780753820339""",5,3.95,Phoenix,Paperback,285,2005,1987,,2017/03/25,,,read,,,,1,,,0,,,,,
12148120,Lonesome Dove,Larry McMurtry,"McMurtry, Larry",,"=""1447203054""","=""9781447203056""",0,4.49,Pan MacMillan,Paperback,848,2011,1985,2017/04/09,2017/03/26,,,read,,,,1,,,0,,,,,
6562394,BUtterfield 8,John O'Hara,"O'Hara, John",,"=""0099518333""","=""9780099518334""",5,3.58,Vintage Classics,Paperback,240,2008,1935,2017/03/26,2017/02/19,,,read,,,,1,,,0,,,,,
14760529,The Tenant of Wildfell Hall,Anne Brontë,"Brontë, Anne",,"=""0141199350""","=""9780141199351""",0,3.95,Penguin Books,Paperback,524,2012,1848,,2017/03/25,to-read,to-read (#10),to-read,,,,0,,,0,,,,,
17847151,Flight Behaviour,Barbara Kingsolver,"Kingsolver, Barbara",,"=""0571290809""","=""9780571290802""",0,3.78,Faber and Faber,Paperback,600,2013,2012,,2017/03/25,to-read,to-read (#9),to-read,,,,0,,,0,,,,,
750821,Middlemarch,George Eliot,"Eliot, George",Rosemary Ashton,"=""0140433880""","=""9780140433883""",0,3.96,Penguin Classics,Paperback,852,1994,1871,,2017/03/25,to-read,to-read (#8),to-read,,,,0,,,0,,,,,
837891,The Mill on the Floss,George Eliot,"Eliot, George",A.S. Byatt,"=""0140431209""","=""9780140431209""",0,3.79,Penguin Classics,Paperback,691,1979,1860,,2017/03/25,to-read,to-read (#7),to-read,,,,0,,,0,,,,,
22934767,Far from the Madding Crowd,Thomas Hardy,"Hardy, Thomas",,"=""014139501X""","=""9780141395012""",0,3.94,Penguin,Paperback,443,2015,1874,,2017/03/24,to-read,to-read (#6),to-read,,,,0,,,0,,,,,
1688631,Sister Carrie,Theodore Dreiser,"Dreiser, Theodore","J.A. West, Neda M. Westlake, John C. Berkey, Alice M. Winters","=""0140390022""","=""9780140390025""",0,3.75,Penguin,Mass Market Paperback,499,1986,1900,,2017/03/24,to-read,to-read (#5),to-read,,,,0,,,0,,,,,
9346728,The Love That God Forgot,Alexander Cordell,"Cordell, Alexander",,"=""0330396900""","=""9780330396905""",0,3.50,Pan,,,2000,1997,,2017/03/24,to-read,to-read (#4),to-read,,,,0,,,0,,,,,
1392801,The Portrait Of A Lady,Henry James,"James, Henry",,"=""0192823620""","=""9780192823625""",0,3.78,Oxford University Press,Paperback,632,1995,1881,,2017/03/24,to-read,to-read (#3),to-read,,,,0,,,0,,,,,
23018955,The Assassination of Margaret Thatcher and Other Stories,Hilary Mantel,"Mantel, Hilary",,"=""0007580975""","=""9780007580972""",0,3.45,4th Estate,Hardcover,244,2014,2014,,2017/03/24,to-read,to-read (#2),to-read,,,,0,,,0,,,,,
25694617,His Bloody Project: Documents Relating to the Case of Roderick Macrae,Graeme Macrae Burnet,"Burnet, Graeme Macrae",,"=""1910192147""","=""9781910192146""",5,3.92,Contraband,Paperback,280,2015,2015,2017/03/19,2017/01/14,,,read,,,,1,,,0,,,,,
97352,The Plot Against America,Philip Roth,"Roth, Philip",,"=""0099478560""","=""9780099478560""",5,3.77,Vintage,Paperback,391,2005,2004,2017/03/18,2017/03/07,,,read,,,,1,,,0,,,,,
1411614,Beloved,Toni Morrison,"Morrison, Toni",,"=""0099511657""","=""9780099511656""",5,3.84,Vintage Classics,Paperback,324,2007,1987,2017/03/07,2017/02/19,,,read,,,,1,,,0,,,,,
25786914,The Big Seven,Jim Harrison,"Harrison, Jim",,"=""0802124666""","=""9780802124661""",5,3.39,Grove Press,Paperback,352,2016,2015,2017/02/26,2017/02/14,,,read,,,,1,,,0,,,,,
880694,Hotel du Lac,Anita Brookner,"Brookner, Anita",,"=""""","=""9780140147476""",5,3.59,Penguin Books Ltd,Paperback,184,1993,1984,2017/02/19,2017/02/14,,,read,,,,1,,,0,,,,,
24385894,A Spool of Blue Thread,Anne Tyler,"Tyler, Anne",,"=""0099598485""","=""9780099598480""",5,3.41,Vintage,Paperback,465,2015,2015,2017/02/14,2017/02/06,,,read,,,,1,,,0,,,,,
14228,Colter: The True Story of the Best Dog I Ever Had,Rick Bass,"Bass, Rick",,"=""0618127364""","=""9780618127368""",0,3.88,Mariner Books,Paperback,208,2001,2000,,2017/02/06,to-read,to-read (#1),to-read,,,,0,,,0,,,,,
28923995,The Sellout,Paul Beatty,"Beatty, Paul",,"=""1786070154""","=""9781786070159""",5,3.77,Oneworld,Paperback,289,2016,2015,2017/02/05,2017/01/14,,,read,,,,1,,,0,,,,,
32854710,"The Prelude, 1805: Edited from the Manuscripts and Illustrated, with an Introduction, Maps, Notes, Glosses, and Chronology",William Wordsworth,"Wordsworth, William","James Engell, Michael D. Raymond","=""0198792662""","=""9780198792666""",0,3.89,Oxford University Press,Hardcover,304,2016,1850,,2017/01/01,currently-reading,currently-reading (#2),currently-reading,,,,1,,,0,,,,,
17299547,Seamless R and C++ Integration with Rcpp,Dirk Eddelbuettel,"Eddelbuettel, Dirk",,"=""1461468671""","=""9781461468677""",0,4.00,Springer,Paperback,220,2013,2013,,2017/01/30,currently-reading,currently-reading (#6),currently-reading,,,,1,,,0,,,,,
6708624,We Have Always Lived in the Castle,Shirley Jackson,"Jackson, Shirley",Joyce Carol Oates,"=""0141191457""","=""9780141191454""",5,3.99,Penguin Modern Classics,Paperback,158,2009,1962,2017/01/28,2017/01/14,,,read,,,,1,,,0,,,,,
8366074,"The Handmaid's Tale (The Handmaid's Tale, #1)",Margaret Atwood,"Atwood, Margaret",,"=""0099511665""","=""9780099511663""",5,4.11,Vintage Classics,Paperback,324,2010,1985,2017/01/22,2017/01/14,,,read,,,,1,,,0,,,,,
25352140,The Peregrine,J.A. Baker,"Baker, J.A.","Mark Cocker, John Fanshawe","=""0008138311""","=""9780008138318""",0,4.24,William Collins,Paperback,432,2010,,,2017/01/02,currently-reading,currently-reading (#5),currently-reading,,,,1,,,0,,,,,
347191,Sundog (Contemporary Classics),Jim Harrison,"Harrison, Jim",,"=""0671741519""","=""9780671741518""",5,4.00,Washington Square Press,Paperback,244,1991,1984,2017/01/02,2017/01/01,,,read,,,,1,,,0,,,,,
22578860,Advanced R,Hadley Wickham,"Wickham, Hadley",,"=""1466586966""","=""9781466586963""",0,4.59,CRC Press,Paperback,476,2014,2014,,2017/01/02,currently-reading,currently-reading (#4),currently-reading,,,,1,,,0,,,,,
28087448,ggplot2: Elegant Graphics for Data Analysis,Hadley Wickham,"Wickham, Hadley",Carson Sievert,"=""331924275X""","=""9783319242750""",0,4.31,Springer,Paperback,260,2016,2009,,2017/01/02,currently-reading,currently-reading (#3),currently-reading,,,,1,,,0,,,,,
17299542,Applied Predictive Modeling,Max Kuhn,"Kuhn, Max",Kjell Johnson,"=""1461468485""","=""9781461468486""",0,4.45,Springer,Hardcover,600,2018,2013,,2017/01/01,currently-reading,currently-reading (#1),currently-reading,,,,1,,,0,,,,,
282675,Jernigan,David Gates,"Gates, David",,"=""0679737138""","=""9780679737131""",5,4.03,Vintage,Paperback,238,1992,1991,,2011/09/29,,,read,,,,1,,,0,,,,,
